{
  "data": [
    {
      "postingDate": "2022-07-16T00:00:00",
      "documentNo": "GVFN22-09345",
      "description": "Order VON22-12098",
      "amount": 202,
      "remainingAmount": 202
    },
    {
      "postingDate": "2022-07-15T00:00:00",
      "documentNo": "GVFN22-09876",
      "description": "Order VON22-45212",
      "amount": 67.969999999999999,
      "remainingAmount": 9
    },
    {
      "postingDate": "2022-07-15T00:00:00",
      "documentNo": "GVFN22-57382",
      "description": "Order VON22-01895",
      "amount": 681.75,
      "remainingAmount": 681.75
    },
    {
      "postingDate": "2022-07-15T00:00:00",
      "documentNo": "GVFN22-7892",
      "description": "Order VON22-129076",
      "amount": 2700.4499999999998,
      "remainingAmount": 2700.4499999999998
    },
    {
      "postingDate": "2022-07-15T00:00:00",
      "documentNo": "GVFN22-19854",
      "description": "Order VON22-83626",
      "amount": 5682.7200000000003,
      "remainingAmount": 5682.7200000000003
    }
  ],
  "total": 10,
  "per_page": 5,
  "current_page": 2,
  "last_page": 2
}
